{"urls":[
    {"name": "♻️摸鱼专用仓♻️","url": "http://我不是.摸鱼儿.top"},
    {"name": "🔮宅男必备站🔮","url": "https://mirror.ghproxy.com/https://raw.githubusercontent.com/shichuanenhui/TvBox/main/fty.json"},
    {"name": "🇨🇳TVBOX官网🇨🇳","url": "http://稳定接口.tvbox.中国"},
    {"name": "🎉东辰影视口🎉","url": "https://gitee.com/dongchenliu/liu/raw/master/hd.json"},
    {"name": "💒刘备资源库💒","url": "https://mirror.ghproxy.com/https://raw.githubusercontent.com/liu673cn/box/main/m.json"},
    {"name": "🐟清清摸鱼儿🐟","url": "http://清清.摸鱼儿.top"},
    {"name": "☁️高天流云仓☁️","url": "https://gcore.jsdelivr.net/gh/gaotianliuyun/gao/XYQ.json"},
    {"name": "🍯我爱吃蜂蜜🍯","url": "http://fmys.top/fmys.json"},
    {"name": "🎯挺好分享仓🎯","url": "http://ztha.top/TVBox/thdjk.json"},
    {"name": "🦔刺猬猫观影🦔","url": "https://www.xn--rgv465a.top/无界线路禁止贩卖"},
    {"name": "🐼熊猫不叫猫🐼","url": "https://mirror.ghproxy.com/https://raw.githubusercontent.com/gggwang/tvbox/master/%E5%8F%AF%E7%88%B1%E7%86%8A%E7%8C%AB.txt"},
    {"name": "🎊奇乐技术网🎊","url": "https://json.qlkjy.cn/qa.json"},
    {"name": "🐮王二小放牛🐮","url": "http://tvbox.xn--4kq62z5rby2qupq9ub.xyz/"},
    {"name": "🧿LR蓝光碟🧿","url": "http://154.44.25.212:6689/tv.txt"},
    {"name": "🐱OK猫影视🐱","url": "http://ok321.top/ok"},
    {"name": "📀4K源云盘📀","url": "https://github.moeyy.xyz/https://raw.githubusercontent.com/PizazzGY/TVBox/main/api.json"},
    {"name": "🍎苹果国际城🍎","url": "https://mirror.ghproxy.com/https://raw.githubusercontent.com/xiaogangzong/box-pg/main/jsm.json"},
    {"name": "📦雷欧资源箱📦","url": "https://gitlab.com/leo3975408/tvbox-ouge/-/raw/master/LEO.json?ref_type=heads"},
    {"name": "⛲乐看无忧网⛲","url": "https://github.moeyy.xyz/https://raw.githubusercontent.com/PizazzGY/TVBox/main/api.json"},
    {"name": "🔞午夜福利院🔞","url": "https://github.moeyy.xyz/https://raw.githubusercontent.com/bizhangjie/CatVodSpider/main/json/18sexN.json"}
    ]}
    }
]}